Project 1: Exploratory Data Analysis
…
Joining/Merging

In this section, I will join the two datasets after seeing how many observations are in each dataset.

usri_tidy %>% nrow()

## [1] 206

hc %>% nrow()

## [1] 663

hc %>% right_join(usri_tidy, by = c(State = "Name"))

## # A tibble: 2,606 x 6
##    State  `Total Offenses` `Offense Type`         Count `Variable name` Estimate
##    <chr>             <dbl> <chr>                  <dbl> <chr>              <dbl>
##  1 Alaba…                9 "Murder and\nnonnegli…     0 Income             24476
##  2 Alaba…                9 "Murder and\nnonnegli…     0 Rent                 747
##  3 Alaba…                9 "Murder and\nnonnegli…     0 Income MOE           136
##  4 Alaba…                9 "Murder and\nnonnegli…     0 Rent MOE               3
##  5 Alaba…                9 "Rape"                     0 Income             24476
##  6 Alaba…                9 "Rape"                     0 Rent                 747
##  7 Alaba…                9 "Rape"                     0 Income MOE           136
##  8 Alaba…                9 "Rape"                     0 Rent MOE               3
##  9 Alaba…                9 "Aggravated\nassault"      0 Income             24476
## 10 Alaba…                9 "Aggravated\nassault"      0 Rent                 747
## # … with 2,596 more rows

hc %>% full_join(usri_tidy, by = c(State = "Name"))

## # A tibble: 2,619 x 6
##    State `Total Offenses` `Offense Type`          Count `Variable name` Estimate
##    <chr>            <dbl> <chr>                   <dbl> <chr>              <dbl>
##  1 Total             8437 "Murder and\nnonneglig…    15 <NA>                  NA
##  2 Total             8437 "Rape"                     23 <NA>                  NA
##  3 Total             8437 "Aggravated\nassault"     990 <NA>                  NA
##  4 Total             8437 "Simple\nassault"        1745 <NA>                  NA
##  5 Total             8437 "Intimidation"           2283 <NA>                  NA
##  6 Total             8437 "Human\nTrafficking\nC…     1 <NA>                  NA
##  7 Total             8437 "Robbery"                 157 <NA>                  NA
##  8 Total             8437 "Burglary"                145 <NA>                  NA
##  9 Total             8437 "Larceny-\ntheft"         326 <NA>                  NA
## 10 Total             8437 "Motor\nvehicle\ntheft"    41 <NA>                  NA
## # … with 2,609 more rows
…
fulldata2 <- fulldata2 %>% mutate(income_dist = case_when(Income < 
    29577 ~ "low", Income <= 36388 & 29577 <= Income ~ "med", 
    Income > 36388 ~ "high")) %>% mutate(rent_dist = case_when(Rent < 
    812 ~ "low", Rent <= 1160 & 812 <= Rent ~ "med", Rent > 1160 ~ 
    "high"))

fulldata2 %>% group_by(State, income_dist) %>% summarize(mean_rent = mean(Rent, 
    na.rm = T), mean_reports = mean(Reports, na.rm = T), mean_income = mean(Income, 
    na.rm = T))

## # A tibble: 50 x 5
## # Groups:   State [50]
##    State                income_dist mean_rent mean_reports mean_income
##    <chr>                <chr>           <dbl>        <dbl>       <dbl>
##  1 Alabama              low               747        0.692       24476
##  2 Alaska               med              1200        0.308       32940
##  3 Arizona              low               972       25.2         27517
##  4 Arkansas             low               709        0.615       23789
##  5 California           low              1358       97.7         29454
##  6 Colorado             med              1125       10.4         32401
##  7 Connecticut          med              1123        9.23        35326
##  8 Delaware             med              1076        2.23        31560
##  9 District of Columbia high             1424       15.9         43198
## 10 Florida              low              1077       12.8         25952
## # … with 40 more rows

fulldata2 %>% group_by(State) %>% summarise(n = n_distinct(Reports))

## # A tibble: 50 x 2
##    State                    n
##    <chr>                <int>
##  1 Alabama                  3
##  2 Alaska                   3
##  3 Arizona                 10
##  4 Arkansas                 3
##  5 California              10
##  6 Colorado                 7
##  7 Connecticut              8
##  8 Delaware                 5
##  9 District of Columbia     7
## 10 Florida                  7
## # … with 40 more rows
…
